-160 -16 -80 712 
-160 16 -80 712 
184 -80 712 
-184 -80 712 
-992 
-992 
992 
992 
992 
-104 -24 -32 -16 16 -56 -64 72 -80 -88 -56 -48 240 
-8 -8 -8 -8 -8 -8 -8 -8 -8 -8 -8 -8 -8 -8 -8 -8 -8 -8 -8 -8 -8 -8 -8 -8 -8 -8 -8 -8 -8 -8 -8 -8 -8 -8 -8 -8 -8 -8 -8 -8 -8 -8 -8 -8 -8 -8 -8 -8 -8 208 
